…
# Find all male characters (case-insensitive check)
char_by_sex(sex_input = "m")
#> # A tibble: 60 × 3
#> # Groups:   sex [1]
#>    name                sex   homeworld
#>    <chr>               <chr> <chr>    
#>  1 Ackbar              male  Mon Cala 
#>  2 Anakin Skywalker    male  Tatooine 
#>  3 Arvel Crynyd        male  <NA>     
#>  4 Bail Prestor Organa male  Alderaan 
#>  5 Ben Quadinaros      male  Tund     
#>  6 Bib Fortuna         male  Ryloth   
#>  7 Biggs Darklighter   male  Tatooine 
#>  8 Boba Fett           male  Kamino   
#>  9 Bossk               male  Trandosha
#> 10 Chewbacca           male  Kashyyyk 
#> # ℹ 50 more rows
```
…
